\begin{tikzpicture}
	\begin{pgfonlayer}{nodelayer}
		\node [style=value, label={left:$r$}] (0) at (0, 0) {};
		\node [style=end] (1) at (4, 0) {};
		\node [style=consume] (2) at (2, 0) {};
		\node [style=value, label={left:$c$}] (3) at (3, 2) {};
		\node [style=consume] (4) at (5, 2) {};
		\node [style=end] (5) at (7, 2) {};
	\end{pgfonlayer}
	\begin{pgfonlayer}{edgelayer}
		\draw [style=time] (0) to (2);
		\draw [style=time] (2) to (1);
		\draw [style=time] (3) to (4);
		\draw [style=time] (4) to (5);
		\draw [style=dep] (2) to (3);
		\draw [style=dep] (3) to (1);
	\end{pgfonlayer}
\end{tikzpicture}
